Run,Assay Type,AvgSpotLen,Bases,BioProject,BioSample,Bytes,Cell_type,Center Name,Consent,DATASTORE filetype,DATASTORE provider,DATASTORE region,Experiment,genotype/variation,GEO_Accession (exp),Instrument,LibraryLayout,LibrarySelection,LibrarySource,Organism,Platform,ReleaseDate,Sample Name,source_name,SRA Study
SRR11035162,RNA-Seq,74,4991254331,PRJNA605180,SAMN14051608,2140595148,quiescent satellite cell,GEO,public,"sra,fastq","s3,gs","s3.us-east-1,gs.US",SRX7687389,Gli3 Knockout,GSM4299796,NextSeq 500,SINGLE,cDNA,TRANSCRIPTOMIC,Mus musculus,ILLUMINA,2022-03-31T00:00:00Z,GSM4299796,QSC Gli3 KO,SRP247520
SRR11035163,RNA-Seq,74,6152521454,PRJNA605180,SAMN14051607,2648716260,quiescent satellite cell,GEO,public,"fastq,sra","s3,gs","gs.US,s3.us-east-1",SRX7687390,Gli3 Knockout,GSM4299797,NextSeq 500,SINGLE,cDNA,TRANSCRIPTOMIC,Mus musculus,ILLUMINA,2022-03-31T00:00:00Z,GSM4299797,QSC Gli3 KO,SRP247520
SRR11035164,RNA-Seq,74,4633967271,PRJNA605180,SAMN14051606,1998237703,quiescent satellite cell,GEO,public,"sra,fastq","gs,s3","s3.us-east-1,gs.US",SRX7687391,Gli3 Knockout,GSM4299798,NextSeq 500,SINGLE,cDNA,TRANSCRIPTOMIC,Mus musculus,ILLUMINA,2022-03-31T00:00:00Z,GSM4299798,QSC Gli3 KO,SRP247520
SRR11035165,RNA-Seq,74,3795430196,PRJNA605180,SAMN14051605,1625633347,quiescent satellite cell,GEO,public,"fastq,sra","s3,gs","gs.US,s3.us-east-1",SRX7687392,Control,GSM4299799,NextSeq 500,SINGLE,cDNA,TRANSCRIPTOMIC,Mus musculus,ILLUMINA,2022-03-31T00:00:00Z,GSM4299799,QSC Gli3 Ctr,SRP247520
SRR11035166,RNA-Seq,74,6348528881,PRJNA605180,SAMN14051604,2729778620,quiescent satellite cell,GEO,public,"fastq,sra","s3,gs","s3.us-east-1,gs.US",SRX7687393,Control,GSM4299800,NextSeq 500,SINGLE,cDNA,TRANSCRIPTOMIC,Mus musculus,ILLUMINA,2022-03-31T00:00:00Z,GSM4299800,QSC Gli3 Ctr,SRP247520
SRR11035167,RNA-Seq,74,4432762644,PRJNA605180,SAMN14051603,1905119872,quiescent satellite cell,GEO,public,"sra,fastq","s3,gs","gs.US,s3.us-east-1",SRX7687394,Control,GSM4299801,NextSeq 500,SINGLE,cDNA,TRANSCRIPTOMIC,Mus musculus,ILLUMINA,2022-03-31T00:00:00Z,GSM4299801,QSC Gli3 Ctr,SRP247520
